{
  "half": {
    "left": [
      "                                ...'',;;;;::;;;,'..                           ",
      "                           ..,;:cloodddxxxkkkkkkkkxol;..                      ",
      "                        .';codxxkkkOOOOOOOOOOOOkkkkkkxdoc,..                  ",
      "                      .,codxkOOOO00000000OOOO0OOOOOOOOkkxddoc,..              ",
      "                   .':ldxkOOOOO00000000000000000000000OOOOkkxxol:'            ",
      "                .,:ldxkkOOOOOO000K000000000000000K000000000Okkxkkx:.          ",
      "             ..,coxkkOOOOOOOOOOOOOOOkkOOOOO0000OOOO000000000OOkxxxxl'         ",
      "            .,;codxxkkOOO0O00Okkk0KK0XNWWWWWWWWWNX0kkkkkOOOOOkkxdool;.        ",
      "          .';::ccldkO0KKKK0OoccKKKK00KNNXXXXXNNX0OO000O00Okkkkkkxoc:,..       ",
      "        .':clc:,,cx0K00xkKNNNWWXKkc.OKNNX               ..;loooc::ll:,..      ",
      "       .,:cc;,...:odxkkkxddl::::,.                 ..';:cc:;:c:;,',''...      ",
      "       .';;;,'..',,;:ccccllllc::;,,''''''''',,,,;:ccllllc:;,,'.....   ..      ",
      "        ..........''',,,;;;;:::cllllllolllllloolllllcc:::;,'...               ",
      "               ..........',,,;;;;;;;;:cccccccccc::::;;,,''...                 ",
      "                    .........''''''''',,;;;;;,,,'''''......                   ",
      "                          .............................                       "
    ],
    "centerLeft": [
      "                                ...'',;;;;::;;;,'..                           ",
      "                           ..,;:cloodddxxxkkkkkkkkxol;..                      ",
      "                        .';codxxkkkOOOOOOOOOOOOkkkkkkxdoc,..                  ",
      "                      .,codxkOOOO00000000OOOO0OOOOOOOOkkxddoc,..              ",
      "                   .':ldxkOOOOO00000000000000000000000OOOOkkxxol:'            ",
      "                .,:ldxkkOOOOOO000K000000000000000K000000000Okkxkkx:.          ",
      "             ..,coxkkOOOOOOOOOOOOOOOkkOOOOO0000OOOO000000000OOkxxxxl'         ",
      "            .,;codxxkkOOO0O00Okkk0KK0XNWWWWWWWWWNX0kkkkkOOOOOkkxdool;.        ",
      "          .';::ccldkO0KKKK0Ooc;KKKx00KNNXXXXXNNX0OO000O00Okkkkkkxoc:,..       ",
      "        ..''..   ;dxolc;'      .lxxO0OkkxxO0kc.         .;looolllol:'..       ",
      "       ..'..    .':lloolc:,..    'lxkkkkkOkd,      ..':clc:::;,,;:;,'..       ",
      "       ......   ....',;;;:ccc::;;,,:loddol:,,.,,;:clllolc:;;,'........        ",
      "           .     ....'''',,,;;:cccccclllloooollllccc:c:::;,'..                ",
      "                   .......'',,,,,,,,;;::::ccccc::::;;;,,''...                 ",
      "                     ...............''',,,;;;,,''''''......                   ",
      "                          ............................                        "
    ],
    "center": [
      "                                ...'',;;;;::;;;,'..                           ",
      "                           ..,;:cloodddxxxkkkkkkkkxol;..                      ",
      "                        .';codxxkkkOOOOOOOOOOOOkkkkkkxdoc,..                  ",
      "                      .,codxkOOOO00000000OOOO0OOOOOOOOkkxddoc,..              ",
      "                   .':ldxkOOOOO00000000000000000000000OOOOkkxxol:'            ",
      "                .,:ldxkkOOOOOO000K000000000000000K000000000Okkxkkx:.          ",
      "             ..,coxkkOOOOOOOOOOOOOOOkkOOOOO0000OOOO000000000OOkxxxxl'         ",
      "            .,;codxxkkOOO0O00Okkk0KK0XNWWWWWWWWWNX0kkkkkOOOOOkkxdool;.        ",
      "          .';::ccldkO0KKKK0Ooc;..,x00KNNXXXXXNNX0OO000O00Okkkkkkxoc:,..       ",
      "        ..,;,'..,oO0OOOkkxo,       ,lkKKKKKK0K0d,.;ldkOO0KKOkxxxdoc:'..       ",
      "       ..,,'.  .,lkOxxxdol:,..       .,ldddl:,.   .,codkkOOkxdollc:,...       ",
      "       ..'.......',;:c::cclccc::;,,,',,;::::;,;;:clodddxdol:;::;'......       ",
      "          .....  ...''',,,;;;:ccllloooooooooooooolllcccc:;;,....              ",
      "                   .......'',,,,,,;;;:::ccclllccc:::;;;,''...                 ",
      "                     ..............'''',,;;;;;,,,''''......                   ",
      "                          .............................                       "
    ],
    "centerRight": [
      "                                ...'',;;;;::;;;,'..                           ",
      "                           ..,;:cloodddxxxkkkkkkkkxol;..                      ",
      "                        .';codxxkkkOOOOOOOOOOOOkkkkkkxdoc,..                  ",
      "                      .,codxkOOOO00000000OOOO0OOOOOOOOkkxddoc,..              ",
      "                   .':ldxkOOOOO00000000000000000000000OOOOkkxxol:'            ",
      "                .,:ldxkkOOOOOO000K000000000000000K000000000Okkxkkx:.          ",
      "             ..,coxkkOOOOOOOOOOOOOOOkkOOOOO0000OOOO000000000OOkxxxxl'         ",
      "            .,;codxxkkOOO0O00Okkk0KK0XNWWWWWWWWWNX0kkkkkOOOOOkkxdool;.        ",
      "          .';::ccldkO0KKKK0Ooc;KKKx00KNNXXXXXNNX0OO000O00Okkkkkkxoc:,..       ",
      "        ..''..   ;dxolc;'            .lxxO0OkkxxO0WKKc. .;looolllol:'..       ",
      "       ..'..    .':lloolc:,..          'lxkkkkkOkd,..':clc:::;,,;:;,'..       ",
      "       ......   ....',;;;:ccc::;;,    ''',:lokdol:clllolc:;;,'........        ",
      "           .     ....'''',,,;;:cccccclllloooollllccc:c:::;,'..                ",
      "                   .......'',,,,,,,,;;::::ccccc::::;;;,,''...                 ",
      "                     ...............''',,,;;;,,''''''......                   ",
      "                          ............................                        "
    ],

    "right": [
      "                                ...'',;;;;::;;;,'..                           ",
      "                           ..,;:cloodddxxxkkkkkkkkxol;..                      ",
      "                        .';codxxkkkOOOOOOOOOOOOkkkkkkxdoc,..                  ",
      "                      .,codxkOOOO00000000OOOO0OOOOOOOOkkxddoc,..              ",
      "                   .':ldxkOOOOO00000000000000000000000OOOOkkxxol:'            ",
      "                .,:ldxkkOOOOOO000K000000000000000K000000000Okkxkkx:.          ",
      "             ..,coxkkOOOOOOOOOOOOOOOkkOOOOO0000OOOO000000000OOkxxxxl'         ",
      "            .,;codxxkkOOO0O00Okkk0KK0XNWWWWWWWWWNX0kkkkkOOOOOkkxdool;.        ",
      "          .';::ccldkO0KKKK0Ooc;KKKx00KNNXXXXXNNX0OO000O00Okkkkkkxoc:,..       ",
      "        ..''..   ;ol:;,'..                     .lOKXWWMWNKkkkkOkxdl,..        ",
      "       .....    .coc;;::::,..                   .o0XXXKOxoooooxkxoc,..        ",
      "       ....     ...',,,;;:ccc::;;,'''''''''',,,;:lddddoocc:;;:ooc:,...        ",
      "                 ....'''',,,;;::cccclllllooooooooolccccc:;,''',,,....         ",
      "                   ........'',,,,,,;;;:::cccccccccc:;;,,''........            ",
      "                     ...............''',,;;;;,,,',,,'........                 ",
      "                          .............................                       "
    ]
  },
  "open": {
    "left": [
      "                               ...'',;;;;:::;;,,'..                           ",
      "                           .';:colllloodxxxkxkkkkkdo:,..                      ",
      "                        .,:ldxkO0OOOOkxkkO00O0NNNXXKOxdl:,'..                 ",
      "                     ..;cdOXNNNWWNO:.        .;cllx0KKKKKkdoc:,..             ",
      "                  ..;codOXWMMMMMMMW0;               .,okKNWNKxlccc,.          ",
      "               ..;ldxxOXWO:,oNMMMMMWk.                 .'ckKXNKxlcoo,         ",
      "             ..;ldxxxONMN;  .OWMMMMMX'                    .cdkKXOlcol'        ",
      "           ..;codollONMMWk'.lNMMMMMW0'                     .cxxO0Ooc:,.       ",
      "          .,:cllc:cxKNWNWMWWWMMMWNXO;                      .okkxdxdo:'.       ",
      "        .':clc:,,cx0K00xkKNNNWWXKkc.                    ..;loooc::ll:,..      ",
      "       .,:cc;,...:odxkkkxddl::::,.                 ..';:cc:;:c:;,',''...      ",
      "       .';;;,'..',,;:ccccllllc::;,,''''''''',,,,;:ccllllc:;,,'.....   ..      ",
      "        ..........''',,,;;;;:::cllllllolllllloolllllcc:::;,'...               ",
      "               ..........',,,;;;;;;;;:cccccccccc::::;;,,''...                 ",
      "                    .........''''''''',,;;;;;,,,'''''......                   ",
      "                          .............................                       "
    ],
    "centerLeft": [
      "                               ...',;;:cccccccc:;,..                          ",
      "                           ..,;:cccc::::ccccclloooolc;'.                      ",
      "                        .',;:::;;;;:loodxkOkkxxkxxdocccc;;'..                 ",
      "                      .,;;;,,;:coxldKNWWWMMMMWNNWWNNKkdolcccc:,.              ",
      "                   .',;;,',;lxo:dXWMMMMMMMMWNk.. loOXNNNX0koc:coo;.           ",
      "                ..,;:;,,,:ldl'.kWMMMWXXNWMMMMXd..   ':d0XWWN0d:;lkd,          ",
      "              ..,;;,,'':loc.  lKMMMNl. .cOKNWNK:     ..';lxO0X0l,cxo,.        ",
      "            ..''....'cooc.    cONMMX;   .lOXWNO;          ,ddx0Ooccl:.        ",
      "          ..'..  .':odc.      .x0KKKkolcldO00xc.          .cxxxkkdl:,..       ",
      "        ..''..   ;dxolc;'      .lxxO0OkkxxO0kc.         .;looolllol:'..       ",
      "       ..'..    .':lloolc:,..    'lxkkkkkOkd,      ..':clc:::;,,;:;,'..       ",
      "       ......   ....',;;;:ccc::;;,,:loddol:,,.,,;:clllolc:;;,'........        ",
      "           .     ....'''',,,;;:cccccclllloooollllccc:c:::;,'..                ",
      "                   .......'',,,,,,,,;;::::ccccc::::;;;,,''...                 ",
      "                     ...............''',,,;;;,,''''''......                   ",
      "                          ............................                        "
    ],
    "center": [
      "                               ...',;;:cccccccc:;,..                          ",
      "                           ..,;:cccc::::ccccclloooolc;'.                      ",
      "                        .',;:::;;;;:loodxkOkkxxkxxdocccc;;'..                 ",
      "                      .,;;;,,;:coxldKNWWWMMMMWNNWWNNKkdolcccc:,.              ",
      "                   .',;;,',;lxo:...dXWMMMMMMMMWNkloOXNNNX0koc:coo;.           ",
      "                ..,;:;,,,:ldl'   .kWMMMWXXNWMMMMXd..':d0XWWN0d:;lkd,          ",
      "              ..,;;,,'':loc.     lKMMMNl. .cOKNWNK:  ..';lxO0X0l,cxo,.        ",
      "            ..''....'cooc.       cONMMX;   .lOXWNO;       ,ddx0Ooccl:.        ",
      "          ..'..  .':odc.         .x0KKKkolcldO00xc.       .cxxxkkdl:,..       ",
      "        ..''..   ;dxolc;'         .lxxO0OkkxxO0kc.      .;looolllol:'..       ",
      "       ..'..    .':lloolc:,..       'lxkkkkkOkd,   ..':clc:::;,,;:;,'..       ",
      "       ......   ....',;;;:ccc::;;,''',:loddol:,,;:clllolc:;;,'........        ",
      "           .     ....'''',,,;;:cccccclllloooollllccc:c:::;,'..                ",
      "                   .......'',,,,,,,,;;::::ccccc::::;;;,,''...                 ",
      "                     ...............''',,,;;;,,''''''......                   ",
      "                          ............................                        "
    ],
    "centerRight": [
      "                               ...',;;:cccccccc:;,..                          ",
      "                           ..,;:cccc::::ccccclloooolc;'.                      ",
      "                        .',;:::;;;;:loodxkOkkxxkxxdocccc;;'..                 ",
      "                      .,;;;,,;:cox  ...WWMMMMWNNWWNNKkdolcccc:,.              ",
      "                   .',;;,',;lxo:   ...kMMMMMMMWNKKLlXNNkkdkoc:coo;.           ",
      "                ..,;:;,,,:ldl'    ...kkWXXNWMMMMXMMddkk.XWWN0d:;lkd,          ",
      "              ..,;;,,'':loc.      ..lKMMMNl.  .cOKNWNKKK;lxO0X0l,cxo,.        ",
      "            ..''....'cooc.         .cONMMX;   .lOXWNOKMk. ,ddx0Ooccl:.        ",
      "          ..'..  .':odc.            .x0KKKkolcldO00WNMk.  cxxxkkdl:,..        ",
      "        ..''..   ;dxolc;'            .lxxO0OkkxxO0WKKc. .;looolllol:'..       ",
      "       ..'..    .':lloolc:,..          'lxkkkkkOkd,..':clc:::;,,;:;,'..       ",
      "       ......   ....',;;;:ccc::;;,    ''',:lokdol:clllolc:;;,'........        ",
      "           .     ....'''',,,;;:cccccclllloooollllccc:c:::;,'..                ",
      "                   .......'',,,,,,,,;;::::ccccc::::;;;,,''...                 ",
      "                     ...............''',,,;;;,,''''''......                   ",
      "                          ............................                        "
    ],
    "right": [
      "                               ...',,;:::cccc::;,'..                          ",
      "                           ..,;:cllllloooooooddxxxdol;'.                      ",
      "                        .',:cccc:cc:lloooxxxdxxkkkkkxodlc;,.                  ",
      "                      .';:;;,,;:cddccdxxdxkOO0XWWWWWNXK0Okxdl:,.              ",
      "                   ..'',,,'';ldl:,.         .'dNMMMMMMWMMWWKkdxx:.            ",
      "                ...''.....;cl;.               oKWMMMMMWKOOKNWKkO0x;.          ",
      "              ....... ..,c:'                 .ONNWMMMWO. .oOKWN0K0d,.         ",
      "            ......   .';,.                   .xKXNWMWMNl',k0KXXK0Oxc'.        ",
      "          ..'..  ..;::,..                     .lk0KXWMMWNNNKO0000kl;..        ",
      "        ..''..   ;ol:;,'..                     .lOKXWWMWNKkkkkOkxdl,..        ",
      "       .....    .coc;;::::,..                   .o0XXXKOxoooooxkxoc,..        ",
      "       ....     ...',,,;;:ccc::;;,'''''''''',,,;:lddddoocc:;;:ooc:,...        ",
      "                 ....'''',,,;;::cccclllllooooooooolccccc:;,''',,,....         ",
      "                   ........'',,,,,,;;;:::cccccccccc:;;,,''........            ",
      "                     ...............''',,;;;;,,,',,,'........                 ",
      "                          .............................                       "
    ]
  },
  "closed": [
    "                                ...'',;;;;;;;,,...                            ",
    "                           ..,:loxkkOOO000KKKKKK0Oxdc,..                      ",
    "                        .,coxO00KXXXXXXXXXXXXXXXXXXXK0Oxo:,..                 ",
    "                     ..;lxO00KKKKK000000000000000KKKKXXXXK0Oxl;..             ",
    "                  ..,:oxkO0OO0OOOOOOOOOOOOOOOOOOOOOOO0000KKKKKKOd:.           ",
    "               ..;codxkkOOOkkkkkkkxxxxxxxxxxxxxxxxkkkkkkOOOO00KK0kl'          ",
    "             ..;ldxkkkkkkxxxxxddddddddddddddddddddddddxxxxxxkkkOOOxc.         ",
    "           ..,:oxxkkkkkxxxxdddddddddddddddddddddddddddddddddxxkkkkxl;.        ",
    "         ..,;codxxkkkxxddddddddddddddddddddddddddddddddxdxxxkOOOkxdo:..       ",
    "        .';::::cldkOOOkkkxxxxxxdddddddddddddddddddddxxxxxkkOOOOkxddl;..       ",
    "       .';:;,..,ckXXXKKK0KK00OkxkOdoddxxdddddddxxxxxxkkOOOOkkkkkxdoc,..       ",
    "       .',,''..,:oxxxxxxxkkxkkxkOOxxk000OOO000000KKKKKKK00Okxdllll:,..        ",
    "        .........',,,:ccllllooooxkxxxO0Okk000O0000000O00OOkxdoc,'...          ",
    "                ......',;;::cc::clllloddooxOxdxxkxxxxddollllc:'.              ",
    "                     .....'',,,,,,,;;;;;::cllc::ccc::;;,,,'...                ",
    "                         ..................'''..'''......                     "
  ]
}
